%YAML 1.1
%TAG !u! tag:unity3d.com,2011:
--- !u!1 &7213918602578096182
GameObject:
  m_ObjectHideFlags: 0
  m_CorrespondingSourceObject: {fileID: 0}
  m_PrefabInstance: {fileID: 0}
  m_PrefabAsset: {fileID: 0}
  serializedVersion: 6
  m_Component:
  - component: {fileID: 7213918602578096183}
  - component: {fileID: 7213918602578096170}
  - component: {fileID: 7213918602578096181}
  - component: {fileID: 7213918602578096180}
  - component: {fileID: 8096268318552028419}
  m_Layer: 5
  m_Name: UI Button
  m_TagString: Untagged
  m_Icon: {fileID: 0}
  m_NavMeshLayer: 0
  m_StaticEditorFlags: 0
  m_IsActive: 1
--- !u!224 &7213918602578096183
RectTransform:
  m_ObjectHideFlags: 0
  m_CorrespondingSourceObject: {fileID: 0}
  m_PrefabInstance: {fileID: 0}
  m_PrefabAsset: {fileID: 0}
  m_GameObject: {fileID: 7213918602578096182}
  m_LocalRotation: {x: 0, y: 0, z: 0, w: 1}
  m_LocalPosition: {x: 0, y: 0, z: 0}
  m_LocalScale: {x: 1, y: 1, z: 1}
  m_ConstrainProportionsScale: 0
  m_Children:
  - {fileID: 7760988042086886306}
  m_Father: {fileID: 0}
  m_RootOrder: -1
  m_LocalEulerAnglesHint: {x: 0, y: 0, z: 0}
  m_AnchorMin: {x: 0.5, y: 0.5}
  m_AnchorMax: {x: 0.5, y: 0.5}
  m_AnchoredPosition: {x: 0, y: 0}
  m_SizeDelta: {x: 203, y: 89}
  m_Pivot: {x: 0.5, y: 0.5}
--- !u!222 &7213918602578096170
CanvasRenderer:
  m_ObjectHideFlags: 0
  m_CorrespondingSourceObject: {fileID: 0}
  m_PrefabInstance: {fileID: 0}
  m_PrefabAsset: {fileID: 0}
  m_GameObject: {fileID: 7213918602578096182}
  m_CullTransparentMesh: 0
--- !u!114 &7213918602578096181
MonoBehaviour:
  m_ObjectHideFlags: 0
  m_CorrespondingSourceObject: {fileID: 0}
  m_PrefabInstance: {fileID: 0}
  m_PrefabAsset: {fileID: 0}
  m_GameObject: {fileID: 7213918602578096182}
  m_Enabled: 1
  m_EditorHideFlags: 0
  m_Script: {fileID: 11500000, guid: fe87c0e1cc204ed48ad3b37840f39efc, type: 3}
  m_Name: 
  m_EditorClassIdentifier: 
  m_Material: {fileID: 0}
  m_Color: {r: 1, g: 1, b: 1, a: 1}
  m_RaycastTarget: 1
  m_RaycastPadding: {x: 0, y: 0, z: 0, w: 0}
  m_Maskable: 0
  m_OnCullStateChanged:
    m_PersistentCalls:
      m_Calls: []
  m_Sprite: {fileID: 21300000, guid: 680c3794db0f61c47b527672e59217e4, type: 3}
  m_Type: 0
  m_PreserveAspect: 0
  m_FillCenter: 1
  m_FillMethod: 4
  m_FillAmount: 1
  m_FillClockwise: 1
  m_FillOrigin: 0
  m_UseSpriteMesh: 0
  m_PixelsPerUnitMultiplier: 1
--- !u!114 &7213918602578096180
MonoBehaviour:
  m_ObjectHideFlags: 0
  m_CorrespondingSourceObject: {fileID: 0}
  m_PrefabInstance: {fileID: 0}
  m_PrefabAsset: {fileID: 0}
  m_GameObject: {fileID: 7213918602578096182}
  m_Enabled: 1
  m_EditorHideFlags: 0
  m_Script: {fileID: 11500000, guid: 4e29b1a8efbd4b44bb3f3716e73f07ff, type: 3}
  m_Name: 
  m_EditorClassIdentifier: 
  m_Navigation:
    m_Mode: 3
    m_WrapAround: 0
    m_SelectOnUp: {fileID: 0}
    m_SelectOnDown: {fileID: 0}
    m_SelectOnLeft: {fileID: 0}
    m_SelectOnRight: {fileID: 0}
  m_Transition: 1
  m_Colors:
    m_NormalColor: {r: 1, g: 1, b: 1, a: 1}
    m_HighlightedColor: {r: 0.78431374, g: 0.78431374, b: 0.78431374, a: 1}
    m_PressedColor: {r: 0.5882353, g: 0.5882353, b: 0.5882353, a: 1}
    m_SelectedColor: {r: 0.78431374, g: 0.78431374, b: 0.78431374, a: 1}
    m_DisabledColor: {r: 0.5019608, g: 0.5019608, b: 0.5019608, a: 0.5019608}
    m_ColorMultiplier: 1
    m_FadeDuration: 0.1
  m_SpriteState:
    m_HighlightedSprite: {fileID: 0}
    m_PressedSprite: {fileID: 0}
    m_SelectedSprite: {fileID: 0}
    m_DisabledSprite: {fileID: 0}
  m_AnimationTriggers:
    m_NormalTrigger: Normal
    m_HighlightedTrigger: Highlighted
    m_PressedTrigger: Pressed
    m_SelectedTrigger: Selected
    m_DisabledTrigger: Disabled
  m_Interactable: 1
  m_TargetGraphic: {fileID: 7213918602578096181}
  m_OnClick:
    m_PersistentCalls:
      m_Calls: []
--- !u!114 &8096268318552028419
MonoBehaviour:
  m_ObjectHideFlags: 0
  m_CorrespondingSourceObject: {fileID: 0}
  m_PrefabInstance: {fileID: 0}
  m_PrefabAsset: {fileID: 0}
  m_GameObject: {fileID: 7213918602578096182}
  m_Enabled: 1
  m_EditorHideFlags: 0
  m_Script: {fileID: 11500000, guid: 19b68f0104698e74da40af3bb66cbe54, type: 3}
  m_Name: 
  m_EditorClassIdentifier: 
  button: {fileID: 7213918602578096180}
--- !u!1001 &1409863879720007197
PrefabInstance:
  m_ObjectHideFlags: 0
  serializedVersion: 2
  m_Modification:
    serializedVersion: 2
    m_TransformParent: {fileID: 7213918602578096183}
    m_Modifications:
    - target: {fileID: 2363448954350950145, guid: dd6e4d10ebe3523469812c42dc0d92bf,
        type: 3}
      propertyPath: m_Name
      value: UI Text
      objectReference: {fileID: 0}
    - target: {fileID: 2363448954350950145, guid: dd6e4d10ebe3523469812c42dc0d92bf,
        type: 3}
      propertyPath: m_IsActive
      value: 1
      objectReference: {fileID: 0}
    - target: {fileID: 2525432286472046259, guid: dd6e4d10ebe3523469812c42dc0d92bf,
        type: 3}
      propertyPath: m_Color.b
      value: 0
      objectReference: {fileID: 0}
    - target: {fileID: 2525432286472046259, guid: dd6e4d10ebe3523469812c42dc0d92bf,
        type: 3}
      propertyPath: m_Color.g
      value: 0
      objectReference: {fileID: 0}
    - target: {fileID: 2525432286472046259, guid: dd6e4d10ebe3523469812c42dc0d92bf,
        type: 3}
      propertyPath: m_Color.r
      value: 0
      objectReference: {fileID: 0}
    - target: {fileID: 2525432286472046259, guid: dd6e4d10ebe3523469812c42dc0d92bf,
        type: 3}
      propertyPath: m_FontData.m_BestFit
      value: 1
      objectReference: {fileID: 0}
    - target: {fileID: 2525432286472046259, guid: dd6e4d10ebe3523469812c42dc0d92bf,
        type: 3}
      propertyPath: m_FontData.m_MaxSize
      value: 300
      objectReference: {fileID: 0}
    - target: {fileID: 2525432286472046259, guid: dd6e4d10ebe3523469812c42dc0d92bf,
        type: 3}
      propertyPath: m_FontData.m_MinSize
      value: 0
      objectReference: {fileID: 0}
    - target: {fileID: 2525432286472046259, guid: dd6e4d10ebe3523469812c42dc0d92bf,
        type: 3}
      propertyPath: m_FontData.m_Alignment
      value: 4
      objectReference: {fileID: 0}
    - target: {fileID: 2525432286472046259, guid: dd6e4d10ebe3523469812c42dc0d92bf,
        type: 3}
      propertyPath: m_FontData.m_AlignByGeometry
      value: 1
      objectReference: {fileID: 0}
    - target: {fileID: 4089637062285174814, guid: dd6e4d10ebe3523469812c42dc0d92bf,
        type: 3}
      propertyPath: m_text
      value: Start
      objectReference: {fileID: 0}
    - target: {fileID: 4089637062285174814, guid: dd6e4d10ebe3523469812c42dc0d92bf,
        type: 3}
      propertyPath: m_fontSize
      value: 51.85
      objectReference: {fileID: 0}
    - target: {fileID: 4089637062285174814, guid: dd6e4d10ebe3523469812c42dc0d92bf,
        type: 3}
      propertyPath: m_fontColor.b
      value: 0
      objectReference: {fileID: 0}
    - target: {fileID: 4089637062285174814, guid: dd6e4d10ebe3523469812c42dc0d92bf,
        type: 3}
      propertyPath: m_fontColor.g
      value: 0
      objectReference: {fileID: 0}
    - target: {fileID: 4089637062285174814, guid: dd6e4d10ebe3523469812c42dc0d92bf,
        type: 3}
      propertyPath: m_fontColor.r
      value: 0
      objectReference: {fileID: 0}
    - target: {fileID: 4089637062285174814, guid: dd6e4d10ebe3523469812c42dc0d92bf,
        type: 3}
      propertyPath: m_textAlignment
      value: 65535
      objectReference: {fileID: 0}
    - target: {fileID: 4089637062285174814, guid: dd6e4d10ebe3523469812c42dc0d92bf,
        type: 3}
      propertyPath: m_enableAutoSizing
      value: 1
      objectReference: {fileID: 0}
    - target: {fileID: 4089637062285174814, guid: dd6e4d10ebe3523469812c42dc0d92bf,
        type: 3}
      propertyPath: m_fontColor32.rgba
      value: 4278190080
      objectReference: {fileID: 0}
    - target: {fileID: 4089637062285174814, guid: dd6e4d10ebe3523469812c42dc0d92bf,
        type: 3}
      propertyPath: m_TextStyleHashCode
      value: -1183493901
      objectReference: {fileID: 0}
    - target: {fileID: 4089637062285174814, guid: dd6e4d10ebe3523469812c42dc0d92bf,
        type: 3}
      propertyPath: m_VerticalAlignment
      value: 512
      objectReference: {fileID: 0}
    - target: {fileID: 4089637062285174814, guid: dd6e4d10ebe3523469812c42dc0d92bf,
        type: 3}
      propertyPath: m_textInfo.lineCount
      value: 1
      objectReference: {fileID: 0}
    - target: {fileID: 4089637062285174814, guid: dd6e4d10ebe3523469812c42dc0d92bf,
        type: 3}
      propertyPath: m_textInfo.pageCount
      value: 1
      objectReference: {fileID: 0}
    - target: {fileID: 4089637062285174814, guid: dd6e4d10ebe3523469812c42dc0d92bf,
        type: 3}
      propertyPath: m_textInfo.wordCount
      value: 1
      objectReference: {fileID: 0}
    - target: {fileID: 4089637062285174814, guid: dd6e4d10ebe3523469812c42dc0d92bf,
        type: 3}
      propertyPath: m_HorizontalAlignment
      value: 2
      objectReference: {fileID: 0}
    - target: {fileID: 4089637062285174814, guid: dd6e4d10ebe3523469812c42dc0d92bf,
        type: 3}
      propertyPath: m_textInfo.spaceCount
      value: 0
      objectReference: {fileID: 0}
    - target: {fileID: 4089637062285174814, guid: dd6e4d10ebe3523469812c42dc0d92bf,
        type: 3}
      propertyPath: m_textInfo.characterCount
      value: 5
      objectReference: {fileID: 0}
    - target: {fileID: 8657121605865561535, guid: dd6e4d10ebe3523469812c42dc0d92bf,
        type: 3}
      propertyPath: m_Pivot.x
      value: 0.5
      objectReference: {fileID: 0}
    - target: {fileID: 8657121605865561535, guid: dd6e4d10ebe3523469812c42dc0d92bf,
        type: 3}
      propertyPath: m_Pivot.y
      value: 0.5
      objectReference: {fileID: 0}
    - target: {fileID: 8657121605865561535, guid: dd6e4d10ebe3523469812c42dc0d92bf,
        type: 3}
      propertyPath: m_RootOrder
      value: 0
      objectReference: {fileID: 0}
    - target: {fileID: 8657121605865561535, guid: dd6e4d10ebe3523469812c42dc0d92bf,
        type: 3}
      propertyPath: m_AnchorMax.x
      value: 0.838042
      objectReference: {fileID: 0}
    - target: {fileID: 8657121605865561535, guid: dd6e4d10ebe3523469812c42dc0d92bf,
        type: 3}
      propertyPath: m_AnchorMax.y
      value: 0.80568236
      objectReference: {fileID: 0}
    - target: {fileID: 8657121605865561535, guid: dd6e4d10ebe3523469812c42dc0d92bf,
        type: 3}
      propertyPath: m_AnchorMin.x
      value: 0.15155762
      objectReference: {fileID: 0}
    - target: {fileID: 8657121605865561535, guid: dd6e4d10ebe3523469812c42dc0d92bf,
        type: 3}
      propertyPath: m_AnchorMin.y
      value: 0.19163758
      objectReference: {fileID: 0}
    - target: {fileID: 8657121605865561535, guid: dd6e4d10ebe3523469812c42dc0d92bf,
        type: 3}
      propertyPath: m_SizeDelta.x
      value: -0.00003540516
      objectReference: {fileID: 0}
    - target: {fileID: 8657121605865561535, guid: dd6e4d10ebe3523469812c42dc0d92bf,
        type: 3}
      propertyPath: m_SizeDelta.y
      value: -0.0000030994415
      objectReference: {fileID: 0}
    - target: {fileID: 8657121605865561535, guid: dd6e4d10ebe3523469812c42dc0d92bf,
        type: 3}
      propertyPath: m_LocalPosition.x
      value: 0
      objectReference: {fileID: 0}
    - target: {fileID: 8657121605865561535, guid: dd6e4d10ebe3523469812c42dc0d92bf,
        type: 3}
      propertyPath: m_LocalPosition.y
      value: 0
      objectReference: {fileID: 0}
    - target: {fileID: 8657121605865561535, guid: dd6e4d10ebe3523469812c42dc0d92bf,
        type: 3}
      propertyPath: m_LocalPosition.z
      value: 0
      objectReference: {fileID: 0}
    - target: {fileID: 8657121605865561535, guid: dd6e4d10ebe3523469812c42dc0d92bf,
        type: 3}
      propertyPath: m_LocalRotation.w
      value: 1
      objectReference: {fileID: 0}
    - target: {fileID: 8657121605865561535, guid: dd6e4d10ebe3523469812c42dc0d92bf,
        type: 3}
      propertyPath: m_LocalRotation.x
      value: 0
      objectReference: {fileID: 0}
    - target: {fileID: 8657121605865561535, guid: dd6e4d10ebe3523469812c42dc0d92bf,
        type: 3}
      propertyPath: m_LocalRotation.y
      value: 0
      objectReference: {fileID: 0}
    - target: {fileID: 8657121605865561535, guid: dd6e4d10ebe3523469812c42dc0d92bf,
        type: 3}
      propertyPath: m_LocalRotation.z
      value: 0
      objectReference: {fileID: 0}
    - target: {fileID: 8657121605865561535, guid: dd6e4d10ebe3523469812c42dc0d92bf,
        type: 3}
      propertyPath: m_AnchoredPosition.x
      value: 0.0000076293945
      objectReference: {fileID: 0}
    - target: {fileID: 8657121605865561535, guid: dd6e4d10ebe3523469812c42dc0d92bf,
        type: 3}
      propertyPath: m_AnchoredPosition.y
      value: 0
      objectReference: {fileID: 0}
    - target: {fileID: 8657121605865561535, guid: dd6e4d10ebe3523469812c42dc0d92bf,
        type: 3}
      propertyPath: m_LocalEulerAnglesHint.x
      value: 0
      objectReference: {fileID: 0}
    - target: {fileID: 8657121605865561535, guid: dd6e4d10ebe3523469812c42dc0d92bf,
        type: 3}
      propertyPath: m_LocalEulerAnglesHint.y
      value: 0
      objectReference: {fileID: 0}
    - target: {fileID: 8657121605865561535, guid: dd6e4d10ebe3523469812c42dc0d92bf,
        type: 3}
      propertyPath: m_LocalEulerAnglesHint.z
      value: 0
      objectReference: {fileID: 0}
    m_RemovedComponents: []
    m_AddedGameObjects: []
  m_SourcePrefab: {fileID: 100100000, guid: dd6e4d10ebe3523469812c42dc0d92bf, type: 3}
--- !u!224 &7760988042086886306 stripped
RectTransform:
  m_CorrespondingSourceObject: {fileID: 8657121605865561535, guid: dd6e4d10ebe3523469812c42dc0d92bf,
    type: 3}
  m_PrefabInstance: {fileID: 1409863879720007197}
  m_PrefabAsset: {fileID: 0}
